PM – mappingcopy
…
The link to the data containing the trend for global forest percentage as well as the download link to the csv file can be found here.

New names:
Rows: 266 Columns: 67
── Column specification
──────────────────────────────────────────────────────── Delimiter: "," chr
(4): Country Name, Country Code, Indicator Name, Indicator Code dbl (31): 1990,
1991, 1992, 1993, 1994, 1995, 1996, 1997, 1998, 1999, 2000, ... lgl (32): 1960,
1961, 1962, 1963, 1964, 1965, 1966, 1967, 1968, 1969, 1970, ...
ℹ Use `spec()` to retrieve the full column specification for this data. ℹ
Specify the column types or set `show_col_types = FALSE` to quiet this message.
• `` -> `...67`

# A tibble: 266 × 67
   Country N…¹ Count…² Indic…³ Indic…⁴ `1960` `1961` `1962` `1963` `1964` `1965`
   <chr>       <chr>   <chr>   <chr>   <lgl>  <lgl>  <lgl>  <lgl>  <lgl>  <lgl> 
 1 Aruba       ABW     Forest… AG.LND… NA     NA     NA     NA     NA     NA    
 2 Africa Eas… AFE     Forest… AG.LND… NA     NA     NA     NA     NA     NA    
 3 Afghanistan AFG     Forest… AG.LND… NA     NA     NA     NA     NA     NA    
 4 Africa Wes… AFW     Forest… AG.LND… NA     NA     NA     NA     NA     NA    
 5 Angola      AGO     Forest… AG.LND… NA     NA     NA     NA     NA     NA    
 6 Albania     ALB     Forest… AG.LND… NA     NA     NA     NA     NA     NA    
 7 Andorra     AND     Forest… AG.LND… NA     NA     NA     NA     NA     NA    
 8 Arab World  ARB     Forest… AG.LND… NA     NA     NA     NA     NA     NA    
 9 United Ara… ARE     Forest… AG.LND… NA     NA     NA     NA     NA     NA    
10 Argentina   ARG     Forest… AG.LND… NA     NA     NA     NA     NA     NA    
# … with 256 more rows, 57 more variables: `1966` <lgl>, `1967` <lgl>,
#   `1968` <lgl>, `1969` <lgl>, `1970` <lgl>, `1971` <lgl>, `1972` <lgl>,
#   `1973` <lgl>, `1974` <lgl>, `1975` <lgl>, `1976` <lgl>, `1977` <lgl>,
#   `1978` <lgl>, `1979` <lgl>, `1980` <lgl>, `1981` <lgl>, `1982` <lgl>,
#   `1983` <lgl>, `1984` <lgl>, `1985` <lgl>, `1986` <lgl>, `1987` <lgl>,
#   `1988` <lgl>, `1989` <lgl>, `1990` <dbl>, `1991` <dbl>, `1992` <dbl>,
#   `1993` <dbl>, `1994` <dbl>, `1995` <dbl>, `1996` <dbl>, `1997` <dbl>, …
…
